Car Manufacturers in the NYSE
…
Lets see how this goes:

companies_by_industry <- nyse %>%
  group_by(industry) %>%
  count() %>% # count the number of companies by industry
  arrange(desc(n))

companies_by_industry

## # A tibble: 103 x 2
## # Groups:   industry [103]
##    industry                            n
##    <chr>                           <int>
##  1 Real Estate Investment Trusts      29
##  2 Major Banks                        24
##  3 Commercial Banks                   21
##  4 Electric Utilities: Central        19
##  5 Telecommunications Equipment       19
##  6 Industrial Machinery/Components    17
##  7 Oil & Gas Production               17
##  8 Major Pharmaceuticals              15
##  9 Natural Gas Distribution           14
## 10 Property-Casualty Insurers         12
## #  with 93 more rows
…
