Magna · Portfolio website of Martino Armanini
…
evals_ch5 %>%
  summarize(mean_bty_avg = mean(bty_avg), mean_score = mean(score),
            median_bty_avg = median(bty_avg), median_score = median(score))

## # A tibble: 1 x 4
##   mean_bty_avg mean_score median_bty_avg median_score
##          <dbl>      <dbl>          <dbl>        <dbl>
## 1         4.42       4.17           4.33          4.3

evals_ch5

## # A tibble: 463 x 4
##       ID score bty_avg   age
##    <int> <dbl>   <dbl> <int>
##  1     1   4.7    5       36
##  2     2   4.1    5       36
##  3     3   3.9    5       36
##  4     4   4.8    5       36
##  5     5   4.6    3       59
##  6     6   4.3    3       59
##  7     7   2.8    3       59
##  8     8   4.1    3.33    51
##  9     9   3.4    3.33    51
## 10    10   4.5    3.17    40
## # … with 453 more rows
…
evals_ch5 %>%
  summarize(mean_bty_avg = mean(bty_avg), mean_age = mean(age),
            median_bty_avg = median(bty_avg), median_age = median(age))

## # A tibble: 1 x 4
##   mean_bty_avg mean_age median_bty_avg median_age
##          <dbl>    <dbl>          <dbl>      <int>
## 1         4.42     48.4           4.33         48

evals_ch5

## # A tibble: 463 x 4
##       ID score bty_avg   age
##    <int> <dbl>   <dbl> <int>
##  1     1   4.7    5       36
##  2     2   4.1    5       36
##  3     3   3.9    5       36
##  4     4   4.8    5       36
##  5     5   4.6    3       59
##  6     6   4.3    3       59
##  7     7   2.8    3       59
##  8     8   4.1    3.33    51
##  9     9   3.4    3.33    51
## 10    10   4.5    3.17    40
## # … with 453 more rows
…
## # A tibble: 2 x 7
##   term      estimate std_error statistic p_value lower_ci upper_ci
##   <chr>        <dbl>     <dbl>     <dbl>   <dbl>    <dbl>    <dbl>
## 1 intercept    3.88      0.076     51.0        0    3.73     4.03 
## 2 bty_avg      0.067     0.016      4.09       0    0.035    0.099

regression_points <- get_regression_points(score_model)

regression_points

## # A tibble: 463 x 5
##       ID score bty_avg score_hat residual
##    <int> <dbl>   <dbl>     <dbl>    <dbl>
##  1     1   4.7    5         4.21    0.486
##  2     2   4.1    5         4.21   -0.114
##  3     3   3.9    5         4.21   -0.314
##  4     4   4.8    5         4.21    0.586
##  5     5   4.6    3         4.08    0.52 
##  6     6   4.3    3         4.08    0.22 
##  7     7   2.8    3         4.08   -1.28 
##  8     8   4.1    3.33      4.10   -0.002
##  9     9   3.4    3.33      4.10   -0.702
## 10    10   4.5    3.17      4.09    0.409
## # … with 453 more rows
…
## # A tibble: 5 x 7
##   term              estimate std_error statistic p_value lower_ci upper_ci
##   <chr>                <dbl>     <dbl>     <dbl>   <dbl>    <dbl>    <dbl>
## 1 intercept             54.8      1.02     53.4        0     52.8     56.8
## 2 continentAmericas     18.8      1.8      10.4        0     15.2     22.4
## 3 continentAsia         15.9      1.65      9.68       0     12.7     19.2
## 4 continentEurope       22.8      1.70     13.5        0     19.5     26.2
## 5 continentOceania      25.9      5.33      4.86       0     15.4     36.4

gap_regression_points <- get_regression_points(lifeExp_model, ID = "country")

gap_regression_points

## # A tibble: 142 x 5
##    country     lifeExp continent lifeExp_hat residual
##    <fct>         <dbl> <fct>           <dbl>    <dbl>
##  1 Afghanistan    43.8 Asia             70.7  -26.9  
##  2 Albania        76.4 Europe           77.6   -1.23 
##  3 Algeria        72.3 Africa           54.8   17.5  
##  4 Angola         42.7 Africa           54.8  -12.1  
##  5 Argentina      75.3 Americas         73.6    1.71 
##  6 Australia      81.2 Oceania          80.7    0.516
##  7 Austria        79.8 Europe           77.6    2.18 
##  8 Bahrain        75.6 Asia             70.7    4.91 
##  9 Bangladesh     64.1 Asia             70.7   -6.67 
## 10 Belgium        79.4 Europe           77.6    1.79 
## # … with 132 more rows
…
